…
    ## Warning: Trying to compute distinct() for variables not found in the data:
    ## - `Name`
    ## This is an error, but only a warning is raised for compatibility reasons.
    ## The operation will return the input unchanged.

    ## # A tibble: 1 x 1
    ##       n
    ##   <int>
    ## 1  2787

``` r
count(dat, dat$serial_num, dat$year)
```

    ## # A tibble: 88 x 3
    ##    `dat$serial_num` `dat$year`     n
    ##    <chr>                 <dbl> <int>
    ##  1 2009317S10073          2009    28
    ##  2 2009325S12066          2009    25
    ##  3 2009337S07096          2009    58
    ##  4 2009342S09140          2009    66
    ##  5 2009346S07086          2009    78
    ##  6 2009346S10172          2009    20
    ##  7 2010002S09096          2010    55
    ##  8 2010018N07113          2010    10
    ##  9 2010019S11123          2010    28
    ## 10 2010020S14147          2010    10
    ## # ... with 78 more rows
…
Let's take a look per hemisphere this time. In the north hemisphere:

``` r
filter_north <- filter(dat, dat$latitude >= 0)
count(filter_north, filter_north$serial_num, filter_north$year)
```

    ## # A tibble: 55 x 3
    ##    `filter_north$serial_num` `filter_north$year`     n
    ##    <chr>                                   <dbl> <int>
    ##  1 2010078N03153                            2010    17
    ##  2 2010136N09057                            2010    25
    ##  3 2010137N10090                            2010    30
    ##  4 2010149N13266                            2010     9
    ##  5 2010151N14065                            2010    53
    ##  6 2010166N15255                            2010    32
    ##  7 2010167N15265                            2010     4
    ##  8 2010169N13266                            2010    50
    ##  9 2010172N08272                            2010    39
    ## 10 2010176N16278                            2010    32
    ## # ... with 45 more rows
…
    ## # A tibble: 1 x 1
    ##       n
    ##   <int>
    ## 1  1555

In the south hemisphere :

``` r
filter_south <- filter(dat, dat$latitude <= 0)
count(filter_south, filter_south$serial_num, filter_south$year)
```

    ## # A tibble: 26 x 3
    ##    `filter_south$serial_num` `filter_south$year`     n
    ##    <chr>                                   <dbl> <int>
    ##  1 2009317S10073                            2009    28
    ##  2 2009325S12066                            2009    25
    ##  3 2009337S07096                            2009    50
    ##  4 2009342S09140                            2009    64
    ##  5 2009346S07086                            2009    76
    ##  6 2009346S10172                            2009    17
    ##  7 2010002S09096                            2010    44
    ##  8 2010019S11123                            2010    28
    ##  9 2010020S14147                            2010    10
    ## 10 2010022S12160                            2010    36
    ## # ... with 16 more rows
…
``` r
knitr::include_graphics('C:/Users/Maya/Documents/Berkeley/Computing data/Workout1/images/map-ep-storms-by-month.png')
```

<img src="C:/Users/Maya/Documents/Berkeley/Computing data/Workout1/images/map-ep-storms-by-month.png" style="display: block; margin: auto;" />

In the NA Bassin:

``` r
dat_NA_bassin <- filter(dat, dat$bassin == ' NA')
count(dat_NA_bassin, dat_NA_bassin$serial_num, dat_NA_bassin$year)
```

    ## # A tibble: 21 x 3
    ##    `dat_NA_bassin$serial_num` `dat_NA_bassin$year`     n
    ##    <chr>                                     <dbl> <int>
    ##  1 2010176N16278                              2010    32
    ##  2 2010188N22269                              2010    13
    ##  3 2010203N22286                              2010    18
    ##  4 2010215N13319                              2010    25
    ##  5 2010222N26277                              2010    32
    ##  6 2010234N11329                              2010    51
    ##  7 2010236N12341                              2010    55
    ##  8 2010242N14318                              2010    24
    ##  9 2010244N12328                              2010    30
    ## 10 2010247N15266                              2010    21
    ## # ... with 11 more rows
…
